{
 "actions": [],
 "allow_rename": 1,
 "creation": "2022-03-02 13:51:43.458977",
 "doctype": "DocType",
 "editable_grid": 1,
 "engine": "InnoDB",
 "field_order": [
  "date",
  "full_duration",
  "accounted_duration",
  "customer",
  "user",
  "title",
  "status",
  "column_break_4",
  "client_venue",
  "client_venue_name",
  "provider_venue",
  "provider_venue_name"
 ],
 "fields": [
  {
   "fieldname": "customer",
   "fieldtype": "Data",
   "in_list_view": 1,
   "in_standard_filter": 1,
   "label": "Customer",
   "reqd": 1,
   "set_only_once": 1
  },
  {
   "fieldname": "user",
   "fieldtype": "Data",
   "in_list_view": 1,
   "in_standard_filter": 1,
   "label": "User",
   "reqd": 1,
   "set_only_once": 1
  },
  {
   "fieldname": "title",
   "fieldtype": "Data",
   "hidden": 1,
   "label": "Title"
  },
  {
   "fieldname": "column_break_4",
   "fieldtype": "Column Break"
  },
  {
   "fieldname": "client_venue",
   "fieldtype": "Link",
   "in_list_view": 1,
   "in_standard_filter": 1,
   "label": "Client Venue",
   "options": "Federated Venue",
   "reqd": 1,
   "set_only_once": 1
  },
  {
   "fieldname": "provider_venue",
   "fieldtype": "Link",
   "in_list_view": 1,
   "in_standard_filter": 1,
   "label": "Provider Venue",
   "options": "Federated Venue"
  },
  {
   "fieldname": "full_duration",
   "fieldtype": "Duration",
   "label": "Full Duration",
   "read_only": 1
  },
  {
   "fieldname": "accounted_duration",
   "fieldtype": "Select",
   "in_list_view": 1,
   "in_standard_filter": 1,
   "label": "Accounted Duration",
   "options": "\nHalf-Day\nFull-Day",
   "read_only": 1
  },
  {
   "default": "Today",
   "fieldname": "date",
   "fieldtype": "Date",
   "in_list_view": 1,
   "label": "Date",
   "read_only": 1,
   "reqd": 1,
   "set_only_once": 1
  },
  {
   "default": "Pending",
   "fieldname": "status",
   "fieldtype": "Select",
   "hidden": 1,
   "label": "Status",
   "options": "Pending\nCleared"
  },
  {
   "fetch_from": "client_venue.label",
   "fieldname": "client_venue_name",
   "fieldtype": "Data",
   "label": "Client Venue Name",
   "read_only": 1
  },
  {
   "fetch_from": "provider_venue.label",
   "fieldname": "provider_venue_name",
   "fieldtype": "Data",
   "label": "Provider Venue Name",
   "read_only": 1
  }
 ],
 "index_web_pages_for_search": 1,
 "links": [
  {
   "group": "Federated Venue Checkin",
   "link_doctype": "Federated Venue Checkin",
   "link_fieldname": "venue_checkin_summary"
  }
 ],
 "modified": "2022-03-17 11:13:59.630618",
 "modified_by": "Administrator",
 "module": "Venues Federation",
 "name": "Federated Venue Checkin Summary",
 "owner": "Administrator",
 "permissions": [
  {
   "create": 1,
   "delete": 1,
   "email": 1,
   "export": 1,
   "print": 1,
   "read": 1,
   "report": 1,
   "role": "System Manager",
   "share": 1,
   "write": 1
  },
  {
   "create": 1,
   "role": "Customer"
  }
 ],
 "sort_field": "modified",
 "sort_order": "DESC",
 "title_field": "title",
 "track_changes": 1,
 "track_seen": 1
}