<svg width="22" height="22" viewBox="0 0 22 22" fill="none" xmlns="http://www.w3.org/2000/svg">
    <path
        d="M5.75524 2.93297C5.75605 2.382 6.20238 1.93559 6.75336 1.93469L15.3293 1.92057C15.8828 1.91966 16.332 2.36869 16.3311 2.92228L16.325 7.07076C16.3242 7.62172 15.8779 8.06812 15.3269 8.06905L6.75102 8.08354C6.19741 8.08447 5.74828 7.63544 5.7491 7.08183L5.75524 2.93297Z"
        stroke="#1A555F" stroke-width="2" />
    <path d="M5.5 11.9167L16.5 11.9167" stroke="#1A555F" stroke-width="2" stroke-linecap="round" />
    <path d="M11 11.9167L11 20.1667" stroke="#1A555F" stroke-width="2" stroke-linecap="round" />
    <path d="M15.5835 20.1666V15.5833H21.0835" stroke="#1A555F" stroke-width="2"
        stroke-linecap="round" stroke-linejoin="round" />
    <path d="M6.4165 20.1666V15.5833H0.916504" stroke="#1A555F" stroke-width="2"
        stroke-linecap="round" stroke-linejoin="round" />
    <path d="M21.0835 8.25V20.1667" stroke="#1A555F" stroke-width="2" stroke-linecap="round" />
    <path d="M0.916504 8.25L0.916504 20.1667" stroke="#1A555F" stroke-width="2"
        stroke-linecap="round" />
</svg>