<svg width="18" height="18" viewBox="0 0 18 18" fill="none" xmlns="http://www.w3.org/2000/svg">
    <path
        d="M13.875 2.25L13.1351 1.88006C12.8516 1.73832 12.7099 1.66745 12.5613 1.61747C12.4294 1.57308 12.2937 1.54103 12.1558 1.52173C12.0006 1.5 11.8421 1.5 11.5252 1.5H6.47484C6.15789 1.5 5.99942 1.5 5.8442 1.52173C5.70635 1.54103 5.57059 1.57308 5.43866 1.61747C5.29011 1.66745 5.14836 1.73832 4.86488 1.88006L4.125 2.25M8.25 4.5L6.75 1.5M9.74999 4.5L11.25 1.5M3 9.75H15M12.75 15L13.5 16.5M5.25 15L4.50012 16.5M6.375 12.375H6.3825M11.625 12.375H11.6325M6.6 15H11.4C12.6601 15 13.2902 15 13.7715 14.7548C14.1948 14.539 14.539 14.1948 14.7548 13.7715C15 13.2902 15 12.6601 15 11.4V8.1C15 6.83988 15 6.20982 14.7548 5.72852C14.539 5.30516 14.1948 4.96095 13.7715 4.74524C13.2902 4.5 12.6601 4.5 11.4 4.5H6.6C5.33988 4.5 4.70982 4.5 4.22852 4.74524C3.80516 4.96095 3.46095 5.30516 3.24524 5.72852C3 6.20982 3 6.83988 3 8.1V11.4C3 12.6601 3 13.2902 3.24524 13.7715C3.46095 14.1948 3.80516 14.539 4.22852 14.7548C4.70982 15 5.33988 15 6.6 15ZM6.75 12.375C6.75 12.5821 6.58211 12.75 6.375 12.75C6.16789 12.75 6 12.5821 6 12.375C6 12.1679 6.16789 12 6.375 12C6.58211 12 6.75 12.1679 6.75 12.375ZM12 12.375C12 12.5821 11.8321 12.75 11.625 12.75C11.4179 12.75 11.25 12.5821 11.25 12.375C11.25 12.1679 11.4179 12 11.625 12C11.8321 12 12 12.1679 12 12.375Z"
        stroke="#2F90A0" stroke-width="1.5" stroke-linecap="round" stroke-linejoin="round" />
</svg>