<svg width="214" height="99" viewBox="0 0 214 99" fill="none" xmlns="http://www.w3.org/2000/svg">
    <path
        d="M127.209 41.6904C127.182 41.8693 127.171 42.0463 127.167 42.2234C125.353 42.4023 123.603 42.8496 121.966 43.5368C121.878 43.3845 121.783 43.2323 121.676 43.0876C120.22 41.1421 117.46 40.7405 115.508 42.191C113.556 43.6415 113.153 46.3941 114.608 48.3414C114.717 48.4861 114.834 48.6193 114.956 48.7469C113.829 50.1155 112.899 51.6593 112.209 53.3421C112.039 53.2964 111.865 53.2564 111.686 53.2297C109.277 52.8795 107.038 54.5432 106.687 56.9436C106.335 59.3459 108.003 61.575 110.412 61.9252C110.591 61.9519 110.769 61.9633 110.946 61.9671C111.126 63.7755 111.575 65.521 112.263 67.1524C112.11 67.24 111.959 67.3351 111.812 67.4436C109.86 68.8941 109.457 71.6467 110.912 73.594C112.368 75.5395 115.128 75.9411 117.08 74.4906C117.225 74.3821 117.359 74.266 117.487 74.1442C118.86 75.2673 120.407 76.1943 122.096 76.8834C122.05 77.0528 122.01 77.226 121.983 77.4069C121.632 79.8092 123.299 82.0382 125.708 82.3885C128.116 82.7387 130.355 81.075 130.707 78.6746C130.733 78.4957 130.745 78.3187 130.749 78.1416C132.563 77.9627 134.313 77.5154 135.95 76.8282C136.038 76.9805 136.133 77.1328 136.24 77.2774C137.696 79.2229 140.456 79.6245 142.408 78.174C144.36 76.7235 144.763 73.9709 143.308 72.0236C143.199 71.8789 143.082 71.7457 142.96 71.6181C144.087 70.2495 145.017 68.7057 145.707 67.0229C145.877 67.0686 146.051 67.1086 146.23 67.1353C148.639 67.4855 150.877 65.8218 151.229 63.4214C151.58 61.0191 149.913 58.79 147.504 58.4398C147.325 58.4131 147.147 58.4017 146.969 58.3979C146.79 56.5895 146.341 54.844 145.653 53.2126C145.806 53.1251 145.957 53.0299 146.104 52.9214C148.056 51.4709 148.459 48.7183 147.004 46.771C145.548 44.8255 142.788 44.4239 140.836 45.8744C140.691 45.9829 140.557 46.099 140.429 46.2208C139.056 45.0977 137.509 44.1707 135.82 43.4816C135.866 43.3122 135.906 43.139 135.933 42.9581C136.284 40.5558 134.617 38.3268 132.208 37.9765C129.799 37.6263 127.561 39.29 127.209 41.6904ZM137.058 61.358C136.404 65.818 132.25 68.9056 127.776 68.2564C123.303 67.6073 120.207 63.4633 120.858 59.0032C121.511 54.5432 125.666 51.4556 130.139 52.1047C134.613 52.7558 137.711 56.8979 137.058 61.358Z"
        fill="#F4EAE2" />
    <path
        d="M151.405 63.4557C151.225 64.6587 150.587 65.7209 149.609 66.4481C148.627 67.1771 147.418 67.4836 146.207 67.3066C146.083 67.2875 145.953 67.2628 145.814 67.2285C145.151 68.8066 144.272 70.2761 143.197 71.6048C143.292 71.7114 143.377 71.8123 143.453 71.9132C144.964 73.9348 144.544 76.8034 142.517 78.311C141.535 79.0401 140.326 79.3466 139.115 79.1695C137.902 78.9925 136.832 78.3567 136.101 77.3783C136.026 77.2774 135.952 77.1689 135.877 77.0471C134.294 77.6943 132.628 78.115 130.923 78.2977C130.915 78.4405 130.903 78.5718 130.884 78.6956V78.7089C130.703 79.9119 130.065 80.9741 129.087 81.7013C128.105 82.4303 126.896 82.7368 125.685 82.5598C124.472 82.3828 123.402 81.747 122.671 80.7685C121.939 79.7901 121.634 78.5852 121.809 77.3764C121.827 77.2546 121.853 77.1232 121.888 76.9843C120.306 76.3237 118.832 75.4481 117.498 74.3764C117.391 74.4716 117.29 74.5553 117.189 74.6315C116.207 75.3605 114.998 75.667 113.787 75.49C112.574 75.3129 111.504 74.6771 110.773 73.6987C109.262 71.6771 109.682 68.8085 111.709 67.3009C111.81 67.2266 111.919 67.1524 112.041 67.0781C111.392 65.4982 110.971 63.8383 110.788 62.1384C110.645 62.1308 110.513 62.1194 110.389 62.1003C107.887 61.7367 106.148 59.4106 106.513 56.9169V56.9036C106.888 54.4157 109.216 52.6891 111.713 53.0527C111.839 53.0717 111.965 53.0965 112.106 53.1308C112.769 51.5527 113.648 50.0832 114.723 48.7545C114.627 48.6479 114.543 48.547 114.467 48.4461C112.956 46.4264 113.376 43.5558 115.403 42.0482C116.385 41.3192 117.594 41.0127 118.805 41.1897C120.018 41.3668 121.087 42.0025 121.819 42.981C121.893 43.0819 121.968 43.1904 122.042 43.3122C123.628 42.665 125.292 42.2443 126.997 42.0616C127.005 41.9188 127.016 41.7874 127.036 41.6637V41.6504C127.217 40.4473 127.855 39.3851 128.833 38.658C129.815 37.9289 131.024 37.6225 132.235 37.7995C134.737 38.1631 136.475 40.4892 136.11 42.9829C136.091 43.1047 136.067 43.2361 136.032 43.375C137.614 44.0355 139.09 44.9112 140.422 45.9829C140.529 45.8877 140.63 45.804 140.731 45.7278C141.713 44.9987 142.922 44.6923 144.133 44.8693C145.346 45.0463 146.416 45.6821 147.147 46.6606C148.658 48.6821 148.238 51.5508 146.211 53.0584C146.11 53.1327 146.001 53.2069 145.879 53.2811C146.528 54.8611 146.95 56.521 147.132 58.2209C147.275 58.2285 147.407 58.2399 147.531 58.2589C148.744 58.436 149.814 59.0718 150.545 60.0502C151.277 61.0286 151.582 62.2336 151.407 63.4423V63.4557H151.405ZM142.786 71.5877C142.79 71.5572 142.804 71.5268 142.825 71.502C143.953 70.1295 144.87 68.5991 145.545 66.9525C145.579 66.8706 145.669 66.825 145.757 66.8478C145.942 66.8973 146.106 66.9335 146.259 66.9563C147.376 67.1181 148.492 66.8383 149.397 66.1644C150.299 65.4944 150.887 64.514 151.053 63.4043V63.3909C151.218 62.2755 150.937 61.1657 150.261 60.2615C149.584 59.3592 148.597 58.771 147.479 58.6092C147.325 58.5864 147.159 58.573 146.966 58.5692C146.876 58.5673 146.801 58.4988 146.794 58.4093C146.618 56.639 146.181 54.9125 145.491 53.2754C145.457 53.1936 145.489 53.0984 145.567 53.0527C145.734 52.9575 145.875 52.8662 145.999 52.7748C147.869 51.3852 148.257 48.7373 146.862 46.8738C146.186 45.9715 145.199 45.3833 144.081 45.2215C142.964 45.0597 141.848 45.3395 140.943 46.0133C140.819 46.1066 140.691 46.2151 140.551 46.3465C140.487 46.4093 140.385 46.4112 140.317 46.356C138.941 45.2291 137.406 44.3173 135.753 43.6453C135.669 43.6111 135.625 43.5197 135.648 43.434C135.698 43.2532 135.732 43.0914 135.755 42.941V42.9315C136.093 40.6301 134.489 38.4848 132.181 38.1497C131.064 37.9879 129.948 38.2678 129.043 38.9416C128.138 39.6155 127.545 40.6072 127.385 41.7151C127.362 41.8693 127.349 42.033 127.345 42.2272C127.345 42.3147 127.274 42.3909 127.184 42.3985C125.41 42.5736 123.678 43.0095 122.035 43.6986C121.953 43.7329 121.855 43.7005 121.811 43.6225C121.716 43.4569 121.624 43.316 121.532 43.1923C120.858 42.29 119.871 41.7018 118.751 41.54C117.634 41.3782 116.518 41.658 115.613 42.3319C113.743 43.7215 113.355 46.3693 114.75 48.2329C114.843 48.3585 114.952 48.4861 115.084 48.6231C115.145 48.6878 115.151 48.7887 115.093 48.8573C113.965 50.2297 113.05 51.7602 112.373 53.4068C112.339 53.4905 112.249 53.5343 112.161 53.5115C111.972 53.4601 111.812 53.4258 111.657 53.403C109.354 53.0679 107.205 54.6612 106.863 56.955V56.9683C106.525 59.2697 108.127 61.415 110.437 61.7501C110.591 61.7729 110.759 61.7862 110.95 61.79C111.04 61.792 111.115 61.8605 111.122 61.9499C111.298 63.7203 111.735 65.4468 112.425 67.0838C112.459 67.1657 112.427 67.2628 112.349 67.3066C112.182 67.4017 112.041 67.4912 111.917 67.5845C110.047 68.9741 109.659 71.6219 111.054 73.4855C111.73 74.3878 112.717 74.976 113.835 75.1378C114.952 75.2996 116.068 75.0198 116.973 74.3459C117.097 74.2527 117.225 74.1441 117.365 74.0128C117.43 73.9519 117.531 73.9481 117.6 74.0033C118.977 75.1302 120.511 76.042 122.163 76.714C122.247 76.7482 122.291 76.8396 122.268 76.9253C122.216 77.1118 122.184 77.2736 122.159 77.4259C121.997 78.5414 122.277 79.6512 122.954 80.5553C123.63 81.4576 124.615 82.0458 125.735 82.2076C126.852 82.3694 127.968 82.0896 128.873 81.4158C129.778 80.7419 130.365 79.7654 130.531 78.6423C130.554 78.49 130.567 78.3225 130.571 78.1302C130.571 78.0426 130.642 77.9665 130.732 77.9589C132.506 77.7838 134.24 77.3459 135.881 76.6588C135.963 76.6245 136.061 76.6569 136.105 76.7349C136.2 76.9005 136.29 77.0414 136.384 77.1651C137.058 78.0674 138.045 78.6556 139.165 78.8174C140.282 78.9792 141.398 78.6994 142.303 78.0255C144.173 76.6359 144.561 73.9881 143.166 72.1245C143.073 72.0007 142.964 71.8732 142.832 71.7342C142.794 71.6924 142.777 71.6391 142.784 71.5858L142.786 71.5877ZM137.232 61.4074C136.554 65.9436 132.307 69.0921 127.752 68.4316C123.189 67.7691 120.018 63.528 120.682 58.9785C120.682 58.9709 120.684 58.9614 120.686 58.9537C121.015 56.7608 122.176 54.823 123.96 53.4962C125.752 52.1656 127.954 51.6079 130.166 51.9296C132.376 52.2513 134.33 53.4106 135.665 55.1961C137.001 56.9817 137.558 59.1784 137.236 61.3827C137.236 61.3903 137.234 61.3998 137.232 61.4074ZM121.04 59.0051C121.04 59.0051 121.038 59.0204 121.036 59.0299C120.398 63.3852 123.435 67.4474 127.803 68.0813C132.164 68.7152 136.231 65.7 136.88 61.356C136.88 61.3484 136.882 61.3408 136.884 61.3332C137.193 59.2221 136.659 57.1187 135.381 55.4093C134.103 53.6999 132.233 52.5882 130.117 52.2818C128 51.9734 125.889 52.5064 124.174 53.7818C122.466 55.0514 121.353 56.9055 121.04 59.007V59.0051Z"
        fill="#1A555F" />
    <path
        d="M161.217 72.8421C161.2 72.9544 161.194 73.0629 161.19 73.1734C160.061 73.2838 158.973 73.5636 157.955 73.99C157.899 73.8948 157.842 73.8015 157.773 73.7102C156.868 72.4995 155.15 72.2501 153.938 73.1524C152.723 74.0547 152.473 75.7679 153.378 76.9767C153.445 77.0661 153.519 77.1499 153.594 77.2298C152.893 78.0807 152.314 79.042 151.886 80.0871C151.779 80.0585 151.672 80.0338 151.559 80.0167C150.062 79.7997 148.669 80.8333 148.452 82.3276C148.234 83.8219 149.271 85.2077 150.769 85.4266C150.879 85.4437 150.99 85.4494 151.101 85.4532C151.212 86.5782 151.493 87.6633 151.919 88.6779C151.823 88.7331 151.729 88.7921 151.638 88.8587C150.423 89.761 150.173 91.4742 151.078 92.6829C151.984 93.8936 153.701 94.143 154.914 93.2407C155.003 93.1741 155.087 93.0998 155.168 93.0256C156.022 93.7242 156.984 94.301 158.035 94.7293C158.006 94.8359 157.981 94.9425 157.964 95.0548C157.746 96.5491 158.784 97.9349 160.281 98.1538C161.779 98.3708 163.171 97.3372 163.389 95.8429C163.406 95.7305 163.412 95.622 163.416 95.5116C164.544 95.4012 165.633 95.1214 166.651 94.695C166.707 94.7902 166.764 94.8835 166.833 94.9748C167.738 96.1855 169.455 96.4349 170.668 95.5326C171.883 94.6303 172.133 92.9171 171.228 91.7083C171.161 91.6189 171.087 91.5351 171.012 91.4551C171.713 90.6043 172.292 89.643 172.72 88.5979C172.827 88.6265 172.934 88.6512 173.046 88.6683C174.544 88.8853 175.936 87.8517 176.154 86.3574C176.372 84.8631 175.335 83.4773 173.837 83.2584C173.726 83.2413 173.616 83.2356 173.505 83.2318C173.394 82.1068 173.113 81.0217 172.687 80.0071C172.783 79.9519 172.876 79.8929 172.968 79.8263C174.183 78.924 174.433 77.2108 173.528 76.002C172.622 74.7914 170.905 74.542 169.692 75.4443C169.602 75.5109 169.518 75.5852 169.438 75.6594C168.584 74.9608 167.622 74.384 166.571 73.9557C166.6 73.8491 166.625 73.7425 166.642 73.6302C166.86 72.1359 165.822 70.7501 164.325 70.5312C162.827 70.3142 161.435 71.3478 161.217 72.8421ZM167.343 85.0744C166.938 87.8479 164.352 89.7686 161.57 89.365C158.787 88.9615 156.862 86.3841 157.267 83.6106C157.672 80.8371 160.258 78.9164 163.039 79.32C165.822 79.7235 167.748 82.3009 167.343 85.0744Z"
        fill="#1A555F" />
    <path
        d="M65.5607 67.9671C65.4976 68.1366 65.4518 68.3079 65.4117 68.4811C63.599 68.2888 61.7939 68.3726 60.0519 68.7133C59.9965 68.5458 59.9354 68.3783 59.859 68.2146C58.8313 66.0141 56.2087 65.0623 54.0026 66.0864C51.7964 67.1105 50.8394 69.726 51.8671 71.9246C51.9435 72.0883 52.0313 72.2425 52.1249 72.3929C50.742 73.5046 49.5157 74.8276 48.4976 76.3352C48.3391 76.2552 48.1786 76.181 48.0067 76.1201C45.7203 75.2901 43.1894 76.4646 42.3547 78.7451C41.52 81.0256 42.6985 83.5478 44.9849 84.3777C45.1549 84.4405 45.3268 84.4862 45.4987 84.5262C45.3058 86.3327 45.3899 88.1334 45.7299 89.8695C45.5618 89.9247 45.3937 89.9856 45.2294 90.0618C43.0232 91.0859 42.0662 93.7014 43.0939 95.9C44.1215 98.1005 46.7441 99.0523 48.9503 98.0281C49.1146 97.952 49.2693 97.8644 49.4202 97.7712C50.5357 99.1493 51.8613 100.371 53.3741 101.386C53.2939 101.544 53.2194 101.704 53.1583 101.875C52.3236 104.156 53.5021 106.678 55.7885 107.508C58.0749 108.338 60.6058 107.163 61.4406 104.883C61.5036 104.713 61.5494 104.542 61.5895 104.369C63.4022 104.561 65.2073 104.477 66.9493 104.137C67.0047 104.304 67.0658 104.472 67.1422 104.635C68.1699 106.836 70.7925 107.788 72.9987 106.764C75.2048 105.739 76.1618 103.124 75.1342 100.925C75.0578 100.762 74.9699 100.607 74.8763 100.457C76.2592 99.3454 77.4855 98.0224 78.5036 96.5148C78.6622 96.5948 78.8226 96.669 78.9945 96.7299C81.2809 97.5599 83.8118 96.3854 84.6465 94.1049C85.4813 91.8245 84.3027 89.3022 82.0163 88.4723C81.8463 88.4095 81.6744 88.3638 81.5025 88.3238C81.6954 86.5173 81.6114 84.7166 81.2714 82.9805C81.4395 82.9253 81.6075 82.8644 81.7718 82.7882C83.978 81.7641 84.935 79.1486 83.9073 76.95C82.8797 74.7495 80.2571 73.7977 78.0509 74.8219C77.8866 74.898 77.7319 74.9856 77.581 75.0788C76.4655 73.7007 75.1399 72.4786 73.6271 71.464C73.7073 71.306 73.7818 71.1461 73.8429 70.9748C74.6777 68.6943 73.4991 66.1721 71.2127 65.3421C68.9263 64.5122 66.3954 65.6867 65.5607 67.9671ZM71.1917 89.2185C69.6426 93.4539 64.9437 95.6354 60.6975 94.0916C56.4494 92.5497 54.2623 87.865 55.8114 83.6315C57.3605 79.3961 62.0594 77.2146 66.3056 78.7584C70.5537 80.3003 72.7408 84.985 71.1917 89.2185Z"
        fill="#F4EAE2" />
    <path
        d="M84.8106 94.181C84.3904 95.3232 83.55 96.2331 82.4421 96.747C81.3323 97.2629 80.0869 97.3162 78.9351 96.8993C78.8167 96.8555 78.6945 96.806 78.5665 96.7432C77.5961 98.1538 76.4348 99.4158 75.1111 100.499C75.1837 100.623 75.2448 100.739 75.2983 100.853C76.366 103.137 75.3689 105.863 73.0768 106.927C71.967 107.443 70.7216 107.496 69.5698 107.08C68.4199 106.661 67.5012 105.821 66.9835 104.715C66.9301 104.601 66.8804 104.479 66.8326 104.346C65.1498 104.658 63.4326 104.732 61.7269 104.567C61.6906 104.706 61.6524 104.831 61.6085 104.949L61.6027 104.963C61.1825 106.105 60.3421 107.015 59.2342 107.529C58.1244 108.045 56.879 108.098 55.7272 107.681C54.5773 107.262 53.6586 106.423 53.1409 105.317C52.6233 104.211 52.5698 102.968 52.99 101.822C53.0321 101.706 53.0836 101.584 53.1467 101.455C51.7332 100.488 50.4668 99.3302 49.3799 98.011C49.2558 98.0833 49.1392 98.1443 49.0265 98.1976C47.9168 98.7134 46.6714 98.7667 45.5196 98.3498C44.3697 97.9311 43.4509 97.0916 42.9333 95.9856C41.8655 93.7013 42.8626 90.9754 45.1547 89.9114C45.2693 89.8581 45.3916 89.8086 45.5253 89.761C45.212 88.0839 45.1375 86.3726 45.3056 84.6709C45.1681 84.6347 45.0401 84.5966 44.9236 84.5528C42.5474 83.6905 41.3192 81.0617 42.1864 78.6918L42.1902 78.6784C43.0613 76.318 45.6934 75.0998 48.0638 75.9602C48.1823 76.0039 48.3026 76.0534 48.4325 76.1163C49.4028 74.7057 50.5642 73.4437 51.8879 72.3605C51.8153 72.2368 51.7542 72.1207 51.7007 72.0065C50.6329 69.7222 51.63 66.9963 53.9222 65.9322C55.0319 65.4163 56.2773 65.363 57.4291 65.7799C58.579 66.1987 59.4978 67.0382 60.0154 68.1441C60.0689 68.2584 60.1186 68.3802 60.1663 68.5134C61.8491 68.2013 63.5663 68.127 65.2721 68.2926C65.3084 68.1537 65.3466 68.028 65.3905 67.91L65.3962 67.8967C65.8184 66.7545 66.6569 65.8446 67.7648 65.3307C68.8746 64.8148 70.1199 64.7615 71.2717 65.1784C73.6479 66.0407 74.8761 68.6695 74.0089 71.0395C73.9669 71.1537 73.9153 71.2793 73.8523 71.4068C75.2658 72.3739 76.5322 73.5312 77.6191 74.8504C77.7432 74.7781 77.8597 74.7171 77.9743 74.6638C79.0841 74.148 80.3295 74.0947 81.4813 74.5116C82.6312 74.9303 83.55 75.7698 84.0676 76.8758C85.1354 79.16 84.1383 81.8859 81.8461 82.95C81.7315 83.0033 81.6093 83.0528 81.4756 83.1004C81.7888 84.7775 81.8633 86.4888 81.6952 88.1905C81.8347 88.2267 81.9608 88.2648 82.0792 88.3086C83.2291 88.7273 84.1478 89.5668 84.6655 90.6728C85.1831 91.7787 85.2366 93.0218 84.8164 94.1677L84.8106 94.181ZM74.7138 100.396C74.7252 100.368 74.7424 100.341 74.7692 100.32C76.1559 99.2045 77.3631 97.8911 78.3602 96.4158C78.4098 96.3416 78.5092 96.3168 78.5875 96.3568C78.7575 96.4425 78.9122 96.511 79.0574 96.5643C80.1194 96.9507 81.2674 96.9012 82.2912 96.4253C83.3112 95.9514 84.0867 95.1119 84.4764 94.0592L84.4802 94.0478C84.868 92.9894 84.8183 91.8435 84.3408 90.8232C83.8632 89.8028 83.017 89.0281 81.955 88.6417C81.8079 88.5884 81.6475 88.5408 81.4603 88.4989C81.3724 88.478 81.3151 88.3961 81.3247 88.3066C81.5138 86.5382 81.4374 84.7584 81.0955 83.0167C81.0783 82.9291 81.1299 82.8415 81.2139 82.8149C81.3954 82.7559 81.552 82.695 81.6933 82.6302C83.8078 81.648 84.7266 79.1353 83.7429 77.0262C83.2654 76.0058 82.4192 75.2311 81.3572 74.8447C80.2951 74.4583 79.1472 74.5096 78.1233 74.9836C77.982 75.0484 77.8349 75.1302 77.6725 75.2311C77.5961 75.2787 77.4968 75.2616 77.4395 75.1911C76.3221 73.8091 75.0041 72.6061 73.5257 71.6124C73.4512 71.5629 73.4264 71.464 73.4665 71.3859C73.5524 71.2184 73.6193 71.068 73.6709 70.9252L73.6747 70.9157C74.4731 68.7304 73.3404 66.3053 71.1495 65.5096C70.0875 65.1232 68.9395 65.1727 67.9157 65.6486C66.8919 66.1245 66.1106 66.9754 65.7267 68.028C65.6732 68.1746 65.6274 68.3307 65.5834 68.5211C65.5643 68.6067 65.4803 68.6657 65.3905 68.6562C63.6179 68.4678 61.832 68.5439 60.0823 68.8846C59.9944 68.9018 59.9066 68.8504 59.8798 68.7666C59.8206 68.5858 59.7595 68.4278 59.6945 68.2888C59.217 67.2685 58.3708 66.4938 57.3088 66.1073C56.2468 65.7209 55.0988 65.7723 54.075 66.2463C51.9605 67.2285 51.0417 69.7412 52.0254 71.8504C52.0923 71.9912 52.1725 72.1378 52.2737 72.2996C52.3215 72.3758 52.3043 72.4747 52.2336 72.5318C50.8469 73.6473 49.6397 74.9608 48.6426 76.4361C48.5929 76.5103 48.4955 76.535 48.4153 76.4951C48.2415 76.4075 48.0906 76.3409 47.9454 76.2876C45.7583 75.4938 43.3306 76.6169 42.5264 78.7946L42.5226 78.806C41.7242 80.9913 42.8569 83.4164 45.0478 84.2121C45.1949 84.2654 45.3553 84.3111 45.5425 84.3549C45.6304 84.3758 45.6896 84.4577 45.6781 84.5471C45.489 86.3155 45.5654 88.0954 45.9073 89.8371C45.9245 89.9247 45.8729 90.0122 45.787 90.0389C45.6055 90.0979 45.4489 90.1588 45.3075 90.2235C43.1931 91.2058 42.2743 93.7185 43.258 95.8276C43.7355 96.8479 44.5817 97.6227 45.6437 98.0091C46.7058 98.3955 47.8537 98.346 48.8776 97.8701C49.0189 97.8054 49.166 97.7236 49.3283 97.6227C49.4047 97.5751 49.5041 97.5922 49.5614 97.6627C50.6788 99.0446 51.9968 100.248 53.4752 101.241C53.5497 101.291 53.5745 101.39 53.5344 101.468C53.4465 101.641 53.3816 101.791 53.3262 101.936C52.9385 102.995 52.9881 104.14 53.4657 105.161C53.9432 106.181 54.7894 106.956 55.8514 107.342C56.9134 107.729 58.0614 107.679 59.0852 107.203C60.109 106.727 60.8826 105.888 61.2742 104.824C61.3277 104.679 61.3735 104.517 61.4175 104.331C61.4366 104.245 61.5206 104.186 61.6104 104.196C63.3849 104.384 65.1708 104.308 66.9186 103.967C67.0065 103.95 67.0943 104.002 67.1211 104.087C67.1803 104.268 67.2414 104.424 67.3063 104.565C67.7839 105.585 68.6301 106.36 69.6921 106.746C70.7541 107.133 71.9021 107.083 72.9259 106.607C75.0404 105.625 75.9592 103.113 74.9755 101.003C74.9105 100.863 74.8284 100.716 74.7271 100.554C74.6966 100.507 74.6928 100.449 74.7119 100.4L74.7138 100.396ZM71.352 89.3022C69.7628 93.6062 64.9626 95.8295 60.6381 94.2591C56.306 92.6848 54.0654 87.8898 55.6451 83.5706C55.647 83.563 55.6508 83.5554 55.6546 83.5477C56.4225 81.4672 57.9563 79.8054 59.9734 78.8688C61.9981 77.9284 64.2693 77.8295 66.3685 78.5928C68.4677 79.3542 70.1429 80.8866 71.0846 82.9062C72.0282 84.924 72.1256 87.1893 71.3596 89.2813C71.3577 89.2889 71.3539 89.2965 71.3501 89.3041L71.352 89.3022ZM55.987 83.6696C55.987 83.6696 55.9813 83.6848 55.9794 83.6924C54.4665 87.8289 56.6116 92.4183 60.7585 93.926C64.8996 95.4298 69.4953 93.3016 71.0177 89.1804C71.0196 89.1728 71.0234 89.1652 71.0253 89.1575C71.7588 87.1531 71.6652 84.9868 70.7617 83.0528C69.8583 81.1207 68.2557 79.6531 66.2462 78.924C64.2368 78.1949 62.0612 78.2882 60.1224 79.1886C58.1913 80.0852 56.7224 81.6766 55.987 83.6696Z"
        fill="#1A555F" />
    <path
        d="M79.7683 117.101L130.798 111.711C133.497 111.426 135.453 109.014 135.167 106.324L124.478 5.81589C124.192 3.12595 121.772 1.17643 119.072 1.46153L68.043 6.85141C65.3438 7.1365 63.3876 9.54826 63.6737 12.2382L74.3629 112.747C74.649 115.437 77.0691 117.386 79.7683 117.101Z"
        fill="#1A555F" />
    <path
        d="M81.1962 113.411L128.626 108.402C130.672 108.186 132.154 106.358 131.938 104.319L121.709 8.14747C121.493 6.10884 119.659 4.63136 117.613 4.84742L70.183 9.85711C68.1374 10.0732 66.6548 11.901 66.8716 13.9396L77.0996 110.111C77.3164 112.15 79.1505 113.627 81.1962 113.411Z"
        fill="#F4EAE2" />
    <path
        d="M128.642 108.551L81.2122 113.561C79.0881 113.786 77.178 112.246 76.9526 110.129L66.722 13.9574C66.4966 11.8407 68.0419 9.93709 70.166 9.71247L117.596 4.7023C119.72 4.47768 121.63 6.01766 121.856 8.13442L132.086 104.306C132.312 106.423 130.766 108.326 128.642 108.551ZM70.1946 10.0075C68.2348 10.215 66.808 11.972 67.0162 13.927L77.2468 110.099C77.455 112.052 79.218 113.474 81.1797 113.266L128.61 108.256C130.571 108.048 131.996 106.291 131.788 104.337L121.558 8.16488C121.349 6.21183 119.586 4.78987 117.625 4.99735L70.1946 10.0075Z"
        fill="#1A555F" />
    <path
        d="M99.9406 10.0189L87.8572 11.2962C87.775 11.3058 87.7025 11.2467 87.6929 11.1649C87.6834 11.083 87.7426 11.0107 87.8247 11.0012L99.9081 9.72389C99.9902 9.71437 100.063 9.77338 100.072 9.85524C100.082 9.93709 100.023 10.0094 99.9406 10.0189Z"
        fill="#1A555F" />
    <path
        d="M116.744 69.2996L110.603 63.1663C109.774 62.3783 107.927 61.9328 105.656 62.9836C103.52 63.9715 100.095 65.5115 94.2465 57.488C88.3996 49.4683 90.6784 46.4321 92.5159 44.9626C92.7929 44.7399 94.8902 42.5127 93.8645 40.2037L90.7873 34.1999C88.1876 29.5533 84.1611 32.8959 83.9281 33.0825C77.3534 38.3344 78.7268 50.8922 87.2459 62.5743C95.765 74.2603 107.31 79.4265 114.335 74.7933C114.585 74.6277 118.826 71.561 116.742 69.2958L116.744 69.2996Z"
        fill="#EFCE3E" />
    <path
        d="M200.953 122.378L133.669 103.375L146.525 57.9449L187.254 39.2329L213.808 76.9481L200.953 122.378Z"
        fill="#2F90A0" />
    <path
        d="M200.902 122.561L133.618 103.558C133.517 103.529 133.458 103.425 133.486 103.324L146.341 57.8935C146.357 57.8402 146.395 57.7964 146.444 57.7716L148.618 56.7723C148.714 56.7285 148.828 56.7704 148.872 56.8656C148.916 56.9607 148.874 57.0749 148.779 57.1187L146.685 58.08L133.906 103.244L200.822 122.142L213.6 76.9824L187.189 39.4727L163.508 50.3516C163.412 50.3954 163.297 50.3535 163.253 50.2583C163.21 50.1631 163.252 50.0489 163.347 50.0051L187.174 39.0596C187.258 39.0216 187.357 39.0482 187.411 39.1225L213.965 76.8358C213.998 76.8834 214.009 76.9424 213.992 76.9976L201.137 122.428C201.123 122.477 201.091 122.517 201.047 122.542C201.003 122.567 200.952 122.573 200.902 122.559V122.561Z"
        fill="#1A555F" />
    <path
        d="M172.449 94.8987C172.409 94.8872 172.372 94.8625 172.346 94.8263L148.093 61.3085C148.032 61.2228 148.051 61.1048 148.137 61.042C148.223 60.981 148.341 61.0001 148.404 61.0857L172.567 94.4799L210.246 78.313C210.343 78.2711 210.456 78.3168 210.496 78.4119C210.538 78.509 210.492 78.6213 210.397 78.6613L172.579 94.8892C172.537 94.9063 172.493 94.9082 172.451 94.8968L172.449 94.8987Z"
        fill="#1A555F" />
    <path
        d="M198.279 83.584L172.534 94.7274L155.808 71.5877L163.536 44.2755L206.005 56.2717L198.279 83.584Z"
        fill="#F4EAE2" />
    <path
        d="M172.483 94.9101C172.443 94.8987 172.407 94.874 172.38 94.8378L155.653 71.6981C155.619 71.6505 155.609 71.5915 155.624 71.5344L161.448 50.9512C161.477 50.8503 161.582 50.7913 161.683 50.8199C161.784 50.8484 161.844 50.9531 161.815 51.054L156.016 71.5496L172.599 94.4894L198.12 83.4431L205.772 56.4011L163.67 44.5096L162.793 47.6086C162.764 47.7095 162.659 47.7685 162.558 47.7399C162.457 47.7114 162.398 47.6067 162.426 47.5058L163.354 44.2221C163.368 44.1727 163.4 44.1327 163.444 44.1079C163.488 44.0832 163.54 44.0775 163.589 44.0908L206.061 56.087C206.162 56.1156 206.221 56.2203 206.193 56.3212L198.464 83.6315C198.449 83.6867 198.409 83.7324 198.357 83.7553L172.613 94.8987C172.571 94.9158 172.527 94.9197 172.485 94.9082L172.483 94.9101Z"
        fill="#1A555F" />
    <path
        d="M162.424 47.5084L161.449 50.9527C161.42 51.0539 161.479 51.1591 161.581 51.1876C161.682 51.2162 161.788 51.1573 161.817 51.0561L162.791 47.6117C162.82 47.5106 162.761 47.4054 162.659 47.3769C162.558 47.3483 162.452 47.4072 162.424 47.5084Z"
        fill="#1A555F" />
    <path
        d="M173.311 64.3063C174.216 62.3917 173.385 60.1054 171.455 59.1997C169.526 58.2939 167.228 59.1117 166.323 61.0262C165.418 62.9408 166.249 65.2271 168.179 66.1329C170.108 67.0386 172.406 66.2209 173.311 64.3063Z"
        fill="#EFCE3E" />
    <path
        d="M184.368 66.7736C183.791 68.8104 181.661 69.9925 179.61 69.4138C177.558 68.8351 176.363 66.7127 176.939 64.6758C177.516 62.639 179.646 61.4569 181.698 62.0356C183.749 62.6143 184.945 64.7368 184.368 66.7736Z"
        fill="#EFCE3E" />
    <path
        d="M194.999 70.4379C195.904 68.5235 195.073 66.237 193.144 65.3309C191.214 64.4248 188.916 65.2422 188.011 67.1566C187.106 69.071 187.936 71.3575 189.866 72.2636C191.795 73.1697 194.093 72.3523 194.999 70.4379Z"
        fill="#EFCE3E" />
    <path
        d="M17.4926 46.5387C3.94412 51.349 -3.12522 66.193 1.70164 79.6949C8.48637 98.6715 42.5342 116.582 42.5342 116.582C42.5342 116.582 58.0118 82.5465 50.7649 62.2754C45.938 48.7735 31.0429 41.7284 17.4945 46.5387H17.4926ZM29.8109 80.9951C23.6661 83.1765 16.91 79.9805 14.721 73.8567C12.532 67.733 15.7391 61.0001 21.8839 58.8186C28.0288 56.6371 34.7848 59.8332 36.9738 65.9569C39.1628 72.0807 35.9557 78.8136 29.8109 80.9951Z"
        fill="#EFCE3E" />
    <path
        d="M42.7079 116.662L42.3602 116.504C42.3984 116.418 46.2588 107.879 49.1831 96.9755C51.8783 86.9285 54.3099 72.7622 50.5833 62.3402C45.8003 48.9582 30.9836 41.9512 17.5555 46.7177C4.12925 51.4861 -2.90379 66.252 1.88105 79.6321C3.32892 83.6791 6.15589 88.004 10.2856 92.485L10.0048 92.7419C5.84072 88.2229 2.9851 83.8542 1.52195 79.7597C-3.33166 66.1816 3.80263 51.1968 17.4294 46.3598C31.0562 41.5229 46.0907 48.6346 50.9443 62.2127C54.7034 72.7298 52.2623 86.9799 49.5518 97.0802C46.6179 108.012 42.748 116.576 42.7079 116.662ZM25.8587 81.8688C20.9249 81.8688 16.289 78.8117 14.5413 73.9215C12.3198 67.7082 15.5861 60.8535 21.8188 58.6397C24.8387 57.568 28.0974 57.7317 30.9931 59.1022C33.8889 60.4728 36.0759 62.8846 37.1532 65.8941L36.7941 66.0217C35.7531 63.1073 33.6348 60.7736 30.8308 59.4468C28.0267 58.12 24.8731 57.962 21.9487 58.9994C15.9128 61.1429 12.7515 67.7787 14.9023 73.7939C17.0531 79.8092 23.7118 82.9596 29.7477 80.8161L29.8757 81.174C28.5501 81.6442 27.192 81.8688 25.8587 81.8688Z"
        fill="#1A555F" />
</svg>